hyperparameter-tuning
…
#
#Check the Skill of the Tuned Model
#
# Check the metrics of the tuned model
model_metrics <- collect_metrics(model_params)
print(model_metrics)

# A tibble: 300 × 9
    mtry trees min_n .metric .estimator  mean     n std_err .config             
   <int> <int> <int> <chr>   <chr>      <dbl> <int>   <dbl> <chr>               
 1     1    50     2 mae     standard   0.285     5  0.0167 Preprocessor1_Model…
 2     1    50     2 rmse    standard   0.464     5  0.0352 Preprocessor1_Model…
 3     1    50     2 rsq     standard   0.855     5  0.0221 Preprocessor1_Model…
 4     2    50     2 mae     standard   0.267     5  0.0174 Preprocessor1_Model…
 5     2    50     2 rmse    standard   0.444     5  0.0335 Preprocessor1_Model…
 6     2    50     2 rsq     standard   0.866     5  0.0217 Preprocessor1_Model…
 7     3    50     2 mae     standard   0.274     5  0.0142 Preprocessor1_Model…
 8     3    50     2 rmse    standard   0.453     5  0.0257 Preprocessor1_Model…
 9     3    50     2 rsq     standard   0.862     5  0.0186 Preprocessor1_Model…
10     4    50     2 mae     standard   0.274     5  0.0143 Preprocessor1_Model…
# ℹ 290 more rows
…
